{
  "project_info": {
    "project_number": "691046091284",
    "project_id": "challenge6-b5125",
    "storage_bucket": "challenge6-b5125.appspot.com"
  },
  "client": [
    {
      "client_info": {
        "mobilesdk_app_id": "1:691046091284:android:e99d029d9ffd40ee6ef501",
        "android_client_info": {
          "package_name": "com.challenge6"
        }
      },
      "oauth_client": [
        {
          "client_id": "691046091284-6fkq5m7fn65cekvofobr8pjcgr0plpok.apps.googleusercontent.com",
          "client_type": 1,
          "android_info": {
            "package_name": "com.challenge6",
            "certificate_hash": "5e8f16062ea3cd2c4a0d547876baa6f38cabf625"
          }
        },
        {
          "client_id": "691046091284-7aebeeefd1phk3vqqdklg2kgr7lelg9t.apps.googleusercontent.com",
          "client_type": 3
        }
      ],
      "api_key": [
        {
          "current_key": "AIzaSyCDbjnQyUwqLC2e7ZkIpxYYMfjHG20TnS0"
        }
      ],
      "services": {
        "appinvite_service": {
          "other_platform_oauth_client": [
            {
              "client_id": "691046091284-7aebeeefd1phk3vqqdklg2kgr7lelg9t.apps.googleusercontent.com",
              "client_type": 3
            }
          ]
        }
      }
    }
  ],
  "configuration_version": "1"
}